// 1. Membuat Database
CREATE DATABASE myshop;

// 2. Membuat Table 
CREATE TABLE users (
    -> id int auto_increment primary key,
    -> name varchar(255),
    -> email varchar(255),
    -> password varchar(255));
	
CREATE TABLE items (
    -> id int auto_increment primary key,
    -> name varchar(255),
    -> description varchar(255),
    -> price int,
    -> stock int,
    -> category_id int);
	
CREATE TABLE categories (
    -> id int auto_increment primary key,
    -> name varchar(255));
	
ALTER TABLE items ADD foreign key (category_id) references categories(id);

// 3. Memasukkan Data 
INSERT INTO users (name, email, password) VALUES
    -> ('John Doe', 'john@doe.com', 'john123'),
    -> ('Jane Doe', 'jane@doe.com', 'jenita123');
	
INSERT INTO categories (name) VALUES
    -> ('gadget'),
    -> ('cloth'),
    -> ('men'),
    -> ('women'),
    -> ('branded');
	
INSERT INTO items (name, description, price, stock, category_id) VALUES
    -> ('Sumsang b50', 'hape keren dari merek sumsang', 4000000, 100, 1),
    -> ('Uniklooh', 'baju keren dari brand ternama', 500000, 50, 2),
    -> ('IMHO Watch', 'jam tangan anak yang jujur banget', 2000000, 10, 1);
	
// 4. Mengambil Data
// A
SELECT id, name, email FROM users;
// B
SELECT * FROM items WHERE price > 1000000;
SELECT * FROM items WHERE name LIKE '%sang%';
// C
SELECT items.name, items.description, items.price, items.stock, items.category_id,
    -> categories.name FROM items
    -> JOIN categories ON
    -> items.category_id = categories.id;
	
// 5. Mengubah Data
UPDATE items SET price = 2500000  WHERE name = 'Sumsang b50';